EESchema Schematic File Version 4
EELAYER 30 0
EELAYER END
$Descr A4 11693 8268
encoding utf-8
Sheet 1 1
Title "AA01B-S040VA1-R3000 breakout board"
Date "2020-11-27"
Rev "1"
Comp "XenGi"
Comment1 "Licensed under CERN-OHL-P v2"
Comment2 ""
Comment3 ""
Comment4 ""
$EndDescr
$Comp
L Connector:Conn_01x22_Male J2
U 1 1 5FBF0CB3
P 5400 2800
F 0 "J2" H 5372 2682 50  0000 R CNN
F 1 "Conn_01x22_Male" H 5372 2773 50  0000 R CNN
F 2 "Connector_PinHeader_2.54mm:PinHeader_1x22_P2.54mm_Vertical" H 5400 2800 50  0001 C CNN
F 3 "~" H 5400 2800 50  0001 C CNN
	1    5400 2800
	-1   0    0    1   
$EndComp
Wire Wire Line
	3500 1700 3600 1700
Wire Wire Line
	3500 1800 3600 1800
Wire Wire Line
	3500 1900 3600 1900
Wire Wire Line
	3500 2000 3600 2000
Wire Wire Line
	3600 2100 3500 2100
Wire Wire Line
	3500 2200 3600 2200
Wire Wire Line
	3600 2300 3500 2300
Wire Wire Line
	3500 2400 3600 2400
Wire Wire Line
	3600 2500 3500 2500
Wire Wire Line
	3500 2600 3600 2600
Wire Wire Line
	3600 2700 3500 2700
Wire Wire Line
	3500 2800 3600 2800
Wire Wire Line
	3600 2900 3500 2900
Wire Wire Line
	3500 3000 3600 3000
Wire Wire Line
	3600 3100 3500 3100
Wire Wire Line
	3500 3200 3550 3200
Wire Wire Line
	3600 3300 3500 3300
Wire Wire Line
	3500 3400 3600 3400
Wire Wire Line
	3600 3500 3500 3500
Wire Wire Line
	3500 3600 3600 3600
Wire Wire Line
	3600 3700 3550 3700
Wire Wire Line
	3500 3800 3550 3800
Wire Wire Line
	5100 1700 5200 1700
Wire Wire Line
	5100 1800 5200 1800
Wire Wire Line
	5200 1900 5100 1900
Wire Wire Line
	5100 2000 5200 2000
Wire Wire Line
	5100 2100 5200 2100
Wire Wire Line
	5100 2200 5200 2200
Wire Wire Line
	5200 2300 5100 2300
Wire Wire Line
	5100 2400 5200 2400
Wire Wire Line
	5100 2500 5200 2500
Wire Wire Line
	5100 2600 5200 2600
Wire Wire Line
	5200 2700 5100 2700
Wire Wire Line
	5100 2800 5200 2800
Wire Wire Line
	5200 2900 5100 2900
Wire Wire Line
	5100 3000 5200 3000
Wire Wire Line
	5200 3100 5100 3100
Wire Wire Line
	5100 3200 5200 3200
Wire Wire Line
	5200 3300 5150 3300
Wire Wire Line
	5100 3400 5200 3400
Wire Wire Line
	5200 3500 5100 3500
Wire Wire Line
	5100 3600 5200 3600
Wire Wire Line
	5200 3700 5150 3700
Wire Wire Line
	5100 3800 5150 3800
Wire Wire Line
	3550 3700 3550 3800
Connection ~ 3550 3700
Wire Wire Line
	3550 3700 3500 3700
Connection ~ 3550 3800
Wire Wire Line
	3550 3800 3600 3800
Wire Wire Line
	5150 3700 5150 3800
Connection ~ 5150 3700
Wire Wire Line
	5150 3700 5100 3700
Connection ~ 5150 3800
Wire Wire Line
	5150 3800 5200 3800
$Comp
L conn-tp-kbd:conn-tp-kbd U1
U 1 1 5FBEB4B6
P 4350 2750
F 0 "U1" H 4350 4165 50  0000 C CNN
F 1 "conn-tp-kbd" H 4350 4074 50  0000 C CNN
F 2 "AA01B-S040VA1:AA01B-S040VA1" H 4350 2750 50  0001 C CNN
F 3 "DOCUMENTATION" H 4350 2750 50  0001 C CNN
	1    4350 2750
	1    0    0    -1  
$EndComp
$Comp
L Connector:Conn_01x22_Male J1
U 1 1 5FBECA1D
P 3300 2800
F 0 "J1" H 3200 2850 50  0000 C CNN
F 1 "Conn_01x22_Male" H 2950 2750 50  0000 C CNN
F 2 "Connector_PinHeader_2.54mm:PinHeader_1x22_P2.54mm_Vertical" H 3300 2800 50  0001 C CNN
F 3 "~" H 3300 2800 50  0001 C CNN
	1    3300 2800
	1    0    0    1   
$EndComp
Wire Wire Line
	5150 3300 5150 3700
Connection ~ 5150 3300
Wire Wire Line
	5150 3300 5100 3300
Wire Wire Line
	3550 3200 3550 3700
Connection ~ 3550 3200
Wire Wire Line
	3550 3200 3600 3200
$Comp
L power:GND #PWR?
U 1 1 5FC21B51
P 3550 3850
F 0 "#PWR?" H 3550 3600 50  0001 C CNN
F 1 "GND" H 3555 3677 50  0000 C CNN
F 2 "" H 3550 3850 50  0001 C CNN
F 3 "" H 3550 3850 50  0001 C CNN
	1    3550 3850
	1    0    0    -1  
$EndComp
$Comp
L power:GND #PWR?
U 1 1 5FC221FB
P 5150 3850
F 0 "#PWR?" H 5150 3600 50  0001 C CNN
F 1 "GND" H 5155 3677 50  0000 C CNN
F 2 "" H 5150 3850 50  0001 C CNN
F 3 "" H 5150 3850 50  0001 C CNN
	1    5150 3850
	1    0    0    -1  
$EndComp
Wire Wire Line
	5150 3850 5150 3800
Wire Wire Line
	3550 3850 3550 3800
$EndSCHEMATC
