%TF.GenerationSoftware,KiCad,Pcbnew,5.1.8*%
%TF.CreationDate,2020-11-27T17:06:48+01:00*%
%TF.ProjectId,AA01B-S040VA1-breakout,41413031-422d-4533-9034-305641312d62,rev?*%
%TF.SameCoordinates,Original*%
%TF.FileFunction,Copper,L2,Bot*%
%TF.FilePolarity,Positive*%
%FSLAX46Y46*%
G04 Gerber Fmt 4.6, Leading zero omitted, Abs format (unit mm)*
G04 Created by KiCad (PCBNEW 5.1.8) date 2020-11-27 17:06:48*
%MOMM*%
%LPD*%
G01*
G04 APERTURE LIST*
%TA.AperFunction,ComponentPad*%
%ADD10O,1.700000X1.700000*%
%TD*%
%TA.AperFunction,ComponentPad*%
%ADD11R,1.700000X1.700000*%
%TD*%
G04 APERTURE END LIST*
D10*
%TO.P,J2,22*%
%TO.N,Net-(J2-Pad22)*%
X120320000Y-120320000D03*
%TO.P,J2,21*%
%TO.N,Net-(J2-Pad21)*%
X120320000Y-117780000D03*
%TO.P,J2,20*%
%TO.N,Net-(J2-Pad20)*%
X120320000Y-115240000D03*
%TO.P,J2,19*%
%TO.N,Net-(J2-Pad19)*%
X120320000Y-112700000D03*
%TO.P,J2,18*%
%TO.N,Net-(J2-Pad18)*%
X120320000Y-110160000D03*
%TO.P,J2,17*%
%TO.N,Net-(J2-Pad17)*%
X120320000Y-107620000D03*
%TO.P,J2,16*%
%TO.N,Net-(J2-Pad16)*%
X120320000Y-105080000D03*
%TO.P,J2,15*%
%TO.N,Net-(J2-Pad15)*%
X120320000Y-102540000D03*
%TO.P,J2,14*%
%TO.N,Net-(J2-Pad14)*%
X120320000Y-100000000D03*
%TO.P,J2,13*%
%TO.N,Net-(J2-Pad13)*%
X120320000Y-97460000D03*
%TO.P,J2,12*%
%TO.N,Net-(J2-Pad12)*%
X120320000Y-94920000D03*
%TO.P,J2,11*%
%TO.N,Net-(J2-Pad11)*%
X120320000Y-92380000D03*
%TO.P,J2,10*%
%TO.N,Net-(J2-Pad10)*%
X120320000Y-89840000D03*
%TO.P,J2,9*%
%TO.N,Net-(J2-Pad9)*%
X120320000Y-87300000D03*
%TO.P,J2,8*%
%TO.N,Net-(J2-Pad8)*%
X120320000Y-84760000D03*
%TO.P,J2,7*%
%TO.N,Net-(J2-Pad7)*%
X120320000Y-82220000D03*
%TO.P,J2,6*%
%TO.N,GND*%
X120320000Y-79680000D03*
%TO.P,J2,5*%
%TO.N,Net-(J2-Pad5)*%
X120320000Y-77140000D03*
%TO.P,J2,4*%
%TO.N,Net-(J2-Pad4)*%
X120320000Y-74600000D03*
%TO.P,J2,3*%
%TO.N,Net-(J2-Pad3)*%
X120320000Y-72060000D03*
%TO.P,J2,2*%
%TO.N,GND*%
X120320000Y-69520000D03*
D11*
%TO.P,J2,1*%
X120320000Y-66980000D03*
%TD*%
%TO.P,J1,1*%
%TO.N,GND*%
X74599800Y-66979800D03*
D10*
%TO.P,J1,2*%
X74599800Y-69519800D03*
%TO.P,J1,3*%
%TO.N,Net-(J1-Pad3)*%
X74599800Y-72059800D03*
%TO.P,J1,4*%
%TO.N,Net-(J1-Pad4)*%
X74599800Y-74599800D03*
%TO.P,J1,5*%
%TO.N,Net-(J1-Pad5)*%
X74599800Y-77139800D03*
%TO.P,J1,6*%
%TO.N,Net-(J1-Pad6)*%
X74599800Y-79679800D03*
%TO.P,J1,7*%
%TO.N,GND*%
X74599800Y-82219800D03*
%TO.P,J1,8*%
%TO.N,Net-(J1-Pad8)*%
X74599800Y-84759800D03*
%TO.P,J1,9*%
%TO.N,Net-(J1-Pad9)*%
X74599800Y-87299800D03*
%TO.P,J1,10*%
%TO.N,Net-(J1-Pad10)*%
X74599800Y-89839800D03*
%TO.P,J1,11*%
%TO.N,Net-(J1-Pad11)*%
X74599800Y-92379800D03*
%TO.P,J1,12*%
%TO.N,Net-(J1-Pad12)*%
X74599800Y-94919800D03*
%TO.P,J1,13*%
%TO.N,Net-(J1-Pad13)*%
X74599800Y-97459800D03*
%TO.P,J1,14*%
%TO.N,Net-(J1-Pad14)*%
X74599800Y-99999800D03*
%TO.P,J1,15*%
%TO.N,Net-(J1-Pad15)*%
X74599800Y-102539800D03*
%TO.P,J1,16*%
%TO.N,Net-(J1-Pad16)*%
X74599800Y-105079800D03*
%TO.P,J1,17*%
%TO.N,Net-(J1-Pad17)*%
X74599800Y-107619800D03*
%TO.P,J1,18*%
%TO.N,Net-(J1-Pad18)*%
X74599800Y-110159800D03*
%TO.P,J1,19*%
%TO.N,Net-(J1-Pad19)*%
X74599800Y-112699800D03*
%TO.P,J1,20*%
%TO.N,Net-(J1-Pad20)*%
X74599800Y-115239800D03*
%TO.P,J1,21*%
%TO.N,Net-(J1-Pad21)*%
X74599800Y-117779800D03*
%TO.P,J1,22*%
%TO.N,Net-(J1-Pad22)*%
X74599800Y-120319800D03*
%TD*%
M02*
